{
  "list": [
    {
      "orderId": "1036660854888-01",
      "creationDate": "2020-06-01T18:14:12.0000000+00:00",
      "clientName": "Ignacio Arc",
      "items": null,
      "totalValue": 17300.0,
      "paymentNames": "Promissory",
      "status": "payment-pending",
      "statusDescription": "Pagamento Pendente",
      "marketPlaceOrderId": null,
      "sequence": "500812",
      "salesChannel": "1",
      "affiliateId": "",
      "origin": "Marketplace",
      "workflowInErrorState": false,
      "workflowInRetry": false,
      "lastMessageUnread": " onready 96 Obrigado pelo seu pedido. Olá, Ignacio. Estamos aguardando a aprovação do pagamento para dar andamento ao seu pedido. Você pode ",
      "ShippingEstimatedDate": null,
      "ShippingEstimatedDateMax": null,
      "ShippingEstimatedDateMin": null,
      "orderIsComplete": true,
      "listId": null,
      "listType": null,
      "authorizedDate": null,
      "callCenterOperatorName": null,
      "totalItems": 1,
      "currencyCode": "ARS",
      "hostname": "onready",
      "invoiceOutput": null,
      "invoiceInput": null
    },
    {
      "orderId": "1035521654802-01",
      "creationDate": "2020-05-28T00:27:31.0000000+00:00",
      "clientName": "Ignacio Arc",
      "items": null,
      "totalValue": 41900.0,
      "paymentNames": "Promissory",
      "status": "canceled",
      "statusDescription": "Cancelado",
      "marketPlaceOrderId": null,
      "sequence": "500810",
      "salesChannel": "1",
      "affiliateId": "",
      "origin": "Marketplace",
      "workflowInErrorState": false,
      "workflowInRetry": false,
      "lastMessageUnread": " onready 96 Seu pedido foi cancelado. Referente ao Pedido #1035521654802-01 Resumo Itens R$ 369,00 Entrega R$ 50,00 Total R$ 419,00 Produto ",
      "ShippingEstimatedDate": null,
      "ShippingEstimatedDateMax": null,
      "ShippingEstimatedDateMin": null,
      "orderIsComplete": true,
      "listId": null,
      "listType": null,
      "authorizedDate": null,
      "callCenterOperatorName": null,
      "totalItems": 1,
      "currencyCode": "ARS",
      "hostname": "onready",
      "invoiceOutput": null,
      "invoiceInput": null
    },
    {
      "orderId": "1035182175866-01",
      "creationDate": "2020-05-26T13:36:18.0000000+00:00",
      "clientName": "Ignacio Arc",
      "items": null,
      "totalValue": 43700.0,
      "paymentNames": "Promissory",
      "status": "invoiced",
      "statusDescription": "Faturado",
      "marketPlaceOrderId": null,
      "sequence": "500808",
      "salesChannel": "1",
      "affiliateId": "",
      "origin": "Marketplace",
      "workflowInErrorState": false,
      "workflowInRetry": false,
      "lastMessageUnread": " onready 96 Seu pacote está disponível para retirada. Referente ao Pedido #1035182175866-01 Olá, Ignacio. Você já pode retirar seus produtos",
      "ShippingEstimatedDate": null,
      "ShippingEstimatedDateMax": "2020-05-29T15:28:55.0000000+00:00",
      "ShippingEstimatedDateMin": "2020-05-29T15:28:55.0000000+00:00",
      "orderIsComplete": true,
      "listId": null,
      "listType": null,
      "authorizedDate": "2020-05-26T15:28:46.0000000+00:00",
      "callCenterOperatorName": null,
      "totalItems": 2,
      "currencyCode": "ARS",
      "hostname": "onready",
      "invoiceOutput": [
        "1234"
      ],
      "invoiceInput": null
    },
    {
      "orderId": "1035182096403-01",
      "creationDate": "2020-05-26T13:34:57.0000000+00:00",
      "clientName": "Ignacio Arc",
      "items": null,
      "totalValue": 17300.0,
      "paymentNames": "Promissory",
      "status": "payment-pending",
      "statusDescription": "Pagamento Pendente",
      "marketPlaceOrderId": null,
      "sequence": "500806",
      "salesChannel": "1",
      "affiliateId": "",
      "origin": "Marketplace",
      "workflowInErrorState": false,
      "workflowInRetry": false,
      "lastMessageUnread": " onready 96 Obrigado pelo seu pedido. Olá, Ignacio. Estamos aguardando a aprovação do pagamento para dar andamento ao seu pedido. Você pode ",
      "ShippingEstimatedDate": null,
      "ShippingEstimatedDateMax": null,
      "ShippingEstimatedDateMin": null,
      "orderIsComplete": true,
      "listId": null,
      "listType": null,
      "authorizedDate": null,
      "callCenterOperatorName": null,
      "totalItems": 1,
      "currencyCode": "ARS",
      "hostname": "onready",
      "invoiceOutput": null,
      "invoiceInput": null
    },
    {
      "orderId": "1034222735928-01",
      "creationDate": "2020-05-22T13:45:33.0000000+00:00",
      "clientName": "Juan Cernadas",
      "items": null,
      "totalValue": 17300.0,
      "paymentNames": "Promissory",
      "status": "payment-pending",
      "statusDescription": "Pagamento Pendente",
      "marketPlaceOrderId": null,
      "sequence": "500804",
      "salesChannel": "1",
      "affiliateId": "",
      "origin": "Marketplace",
      "workflowInErrorState": false,
      "workflowInRetry": false,
      "lastMessageUnread": " onready 96 Obrigado pelo seu pedido. Olá, Juan. Estamos aguardando a aprovação do pagamento para dar andamento ao seu pedido. Você pode aco",
      "ShippingEstimatedDate": null,
      "ShippingEstimatedDateMax": null,
      "ShippingEstimatedDateMin": null,
      "orderIsComplete": true,
      "listId": null,
      "listType": null,
      "authorizedDate": null,
      "callCenterOperatorName": null,
      "totalItems": 1,
      "currencyCode": "ARS",
      "hostname": "onready",
      "invoiceOutput": null,
      "invoiceInput": null
    },
    {
      "orderId": "1034052569860-01",
      "creationDate": "2020-05-21T20:42:45.0000000+00:00",
      "clientName": "Juan Cernadas",
      "items": null,
      "totalValue": 17300.0,
      "paymentNames": "Promissory",
      "status": "payment-pending",
      "statusDescription": "Pagamento Pendente",
      "marketPlaceOrderId": null,
      "sequence": "500802",
      "salesChannel": "1",
      "affiliateId": "",
      "origin": "Marketplace",
      "workflowInErrorState": false,
      "workflowInRetry": false,
      "lastMessageUnread": " onready 96 Obrigado pelo seu pedido. Olá, Juan. Estamos aguardando a aprovação do pagamento para dar andamento ao seu pedido. Você pode aco",
      "ShippingEstimatedDate": null,
      "ShippingEstimatedDateMax": null,
      "ShippingEstimatedDateMin": null,
      "orderIsComplete": true,
      "listId": null,
      "listType": null,
      "authorizedDate": null,
      "callCenterOperatorName": null,
      "totalItems": 1,
      "currencyCode": "ARS",
      "hostname": "onready",
      "invoiceOutput": null,
      "invoiceInput": null
    },
    {
      "orderId": "1034052192210-01",
      "creationDate": "2020-05-21T20:36:38.0000000+00:00",
      "clientName": "Juan Cernadas",
      "items": null,
      "totalValue": 17300.0,
      "paymentNames": "Promissory",
      "status": "canceled",
      "statusDescription": "Cancelado",
      "marketPlaceOrderId": null,
      "sequence": "500800",
      "salesChannel": "1",
      "affiliateId": "",
      "origin": "Marketplace",
      "workflowInErrorState": false,
      "workflowInRetry": false,
      "lastMessageUnread": " onready 96 Seu pedido foi cancelado. Referente ao Pedido #1034052192210-01 Resumo Itens R$ 123,00 Entrega R$ 50,00 Total R$ 173,00 Produto ",
      "ShippingEstimatedDate": null,
      "ShippingEstimatedDateMax": null,
      "ShippingEstimatedDateMin": null,
      "orderIsComplete": true,
      "listId": null,
      "listType": null,
      "authorizedDate": null,
      "callCenterOperatorName": null,
      "totalItems": 1,
      "currencyCode": "ARS",
      "hostname": "onready",
      "invoiceOutput": null,
      "invoiceInput": null
    },
    {
      "orderId": "1034020530069-01",
      "creationDate": "2020-05-21T18:08:56.0000000+00:00",
      "clientName": "Ignacio Arc",
      "items": null,
      "totalValue": 5900.0,
      "paymentNames": "Promissory",
      "status": "payment-pending",
      "statusDescription": "Pagamento Pendente",
      "marketPlaceOrderId": null,
      "sequence": "500798",
      "salesChannel": "1",
      "affiliateId": "",
      "origin": "Marketplace",
      "workflowInErrorState": false,
      "workflowInRetry": false,
      "lastMessageUnread": " onready 96 Obrigado pelo seu pedido. Olá, Ignacio. Estamos aguardando a aprovação do pagamento para dar andamento ao seu pedido. Você pode ",
      "ShippingEstimatedDate": null,
      "ShippingEstimatedDateMax": null,
      "ShippingEstimatedDateMin": null,
      "orderIsComplete": true,
      "listId": null,
      "listType": null,
      "authorizedDate": null,
      "callCenterOperatorName": null,
      "totalItems": 1,
      "currencyCode": "ARS",
      "hostname": "onready",
      "invoiceOutput": null,
      "invoiceInput": null
    },
    {
      "orderId": "1034022493954-01",
      "creationDate": "2020-05-21T17:41:42.0000000+00:00",
      "clientName": "Ignacio Arc",
      "items": null,
      "totalValue": 17300.0,
      "paymentNames": "Promissory",
      "status": "payment-pending",
      "statusDescription": "Pagamento Pendente",
      "marketPlaceOrderId": null,
      "sequence": "500796",
      "salesChannel": "1",
      "affiliateId": "",
      "origin": "Marketplace",
      "workflowInErrorState": false,
      "workflowInRetry": false,
      "lastMessageUnread": " onready 96 Obrigado pelo seu pedido. Olá, Ignacio. Estamos aguardando a aprovação do pagamento para dar andamento ao seu pedido. Você pode ",
      "ShippingEstimatedDate": null,
      "ShippingEstimatedDateMax": null,
      "ShippingEstimatedDateMin": null,
      "orderIsComplete": true,
      "listId": null,
      "listType": null,
      "authorizedDate": null,
      "callCenterOperatorName": null,
      "totalItems": 1,
      "currencyCode": "ARS",
      "hostname": "onready",
      "invoiceOutput": null,
      "invoiceInput": null
    },
    {
      "orderId": "1033783043777-01",
      "creationDate": "2020-05-20T17:50:49.0000000+00:00",
      "clientName": "Ignacio Arc",
      "items": null,
      "totalValue": 17300.0,
      "paymentNames": "Promissory",
      "status": "payment-pending",
      "statusDescription": "Pagamento Pendente",
      "marketPlaceOrderId": null,
      "sequence": "500794",
      "salesChannel": "1",
      "affiliateId": "",
      "origin": "Marketplace",
      "workflowInErrorState": false,
      "workflowInRetry": false,
      "lastMessageUnread": " onready 96 Obrigado pelo seu pedido. Olá, Ignacio. Estamos aguardando a aprovação do pagamento para dar andamento ao seu pedido. Você pode ",
      "ShippingEstimatedDate": null,
      "ShippingEstimatedDateMax": null,
      "ShippingEstimatedDateMin": null,
      "orderIsComplete": true,
      "listId": null,
      "listType": null,
      "authorizedDate": null,
      "callCenterOperatorName": null,
      "totalItems": 1,
      "currencyCode": "ARS",
      "hostname": "onready",
      "invoiceOutput": null,
      "invoiceInput": null
    }
  ],
  "facets": [],
  "paging": {
    "total": 156,
    "pages": 16,
    "currentPage": 1,
    "perPage": 10
  },
  "stats": {
    "stats": {
      "totalValue": {
        "Count": 156,
        "Max": 0.0,
        "Mean": 0.0,
        "Min": 0.0,
        "Missing": 0,
        "StdDev": 0.0,
        "Sum": 0.0,
        "SumOfSquares": 0.0,
        "Facets": {}
      },
      "totalItems": {
        "Count": 156,
        "Max": 0.0,
        "Mean": 0.0,
        "Min": 0.0,
        "Missing": 0,
        "StdDev": 0.0,
        "Sum": 0.0,
        "SumOfSquares": 0.0,
        "Facets": {}
      }
    }
  }
}